%YAML 1.1
%TAG !u! tag:unity3d.com,2011:
--- !u!114 &11400000
MonoBehaviour:
  m_ObjectHideFlags: 0
  m_CorrespondingSourceObject: {fileID: 0}
  m_PrefabInstance: {fileID: 0}
  m_PrefabAsset: {fileID: 0}
  m_GameObject: {fileID: 0}
  m_Enabled: 1
  m_EditorHideFlags: 0
  m_Script: {fileID: 11500000, guid: 39d488b3eb7139749aec61813bc2f468, type: 3}
  m_Name: 000B4A30-133A-422E-A830-922EDE347202
  m_EditorClassIdentifier: 
  objectName: boxBroken
  id: 1553870775
  guid: 000B4A30-133A-422E-A830-922EDE347202
