%YAML 1.1
%TAG !u! tag:unity3d.com,2011:
--- !u!114 &11400000
MonoBehaviour:
  m_ObjectHideFlags: 0
  m_CorrespondingSourceObject: {fileID: 0}
  m_PrefabInstance: {fileID: 0}
  m_PrefabAsset: {fileID: 0}
  m_GameObject: {fileID: 0}
  m_Enabled: 1
  m_EditorHideFlags: 0
  m_Script: {fileID: 11500000, guid: 39d488b3eb7139749aec61813bc2f468, type: 3}
  m_Name: 5F55AE7F-6D7A-4C3F-B555-2B159A68C3FE
  m_EditorClassIdentifier: 
  objectName: Death_grenadier_
  id: 1568651142
  guid: 5F55AE7F-6D7A-4C3F-B555-2B159A68C3FE
