%YAML 1.1
%TAG !u! tag:unity3d.com,2011:
--- !u!114 &11400000
MonoBehaviour:
  m_ObjectHideFlags: 0
  m_CorrespondingSourceObject: {fileID: 0}
  m_PrefabInstance: {fileID: 0}
  m_PrefabAsset: {fileID: 0}
  m_GameObject: {fileID: 0}
  m_Enabled: 1
  m_EditorHideFlags: 0
  m_Script: {fileID: 11500000, guid: 39d488b3eb7139749aec61813bc2f468, type: 3}
  m_Name: 85D251D6-A817-4984-976D-927D566901D9
  m_EditorClassIdentifier: 
  objectName: PreAtack
  id: 609321358
  guid: 85D251D6-A817-4984-976D-927D566901D9
