%YAML 1.1
%TAG !u! tag:unity3d.com,2011:
--- !u!114 &11400000
MonoBehaviour:
  m_ObjectHideFlags: 0
  m_CorrespondingSourceObject: {fileID: 0}
  m_PrefabInstance: {fileID: 0}
  m_PrefabAsset: {fileID: 0}
  m_GameObject: {fileID: 0}
  m_Enabled: 1
  m_EditorHideFlags: 0
  m_Script: {fileID: 11500000, guid: 39d488b3eb7139749aec61813bc2f468, type: 3}
  m_Name: 8FAACED6-A34E-4646-BFDA-AA136CFD335B
  m_EditorClassIdentifier: 
  objectName: EmoteLanding
  id: 1399379220
  guid: 8FAACED6-A34E-4646-BFDA-AA136CFD335B
