%YAML 1.1
%TAG !u! tag:unity3d.com,2011:
--- !u!114 &11400000
MonoBehaviour:
  m_ObjectHideFlags: 0
  m_CorrespondingSourceObject: {fileID: 0}
  m_PrefabInstance: {fileID: 0}
  m_PrefabAsset: {fileID: 0}
  m_GameObject: {fileID: 0}
  m_Enabled: 1
  m_EditorHideFlags: 0
  m_Script: {fileID: 11500000, guid: 39d488b3eb7139749aec61813bc2f468, type: 3}
  m_Name: E7EE1E6B-455A-4D8F-AF78-1FD224C6803E
  m_EditorClassIdentifier: 
  objectName: FootstepPlayer
  id: 3280701392
  guid: E7EE1E6B-455A-4D8F-AF78-1FD224C6803E
