%YAML 1.1
%TAG !u! tag:unity3d.com,2011:
--- !u!114 &11400000
MonoBehaviour:
  m_ObjectHideFlags: 0
  m_CorrespondingSourceObject: {fileID: 0}
  m_PrefabInstance: {fileID: 0}
  m_PrefabAsset: {fileID: 0}
  m_GameObject: {fileID: 0}
  m_Enabled: 1
  m_EditorHideFlags: 0
  m_Script: {fileID: 11500000, guid: 35b7d18d1dca628459f3d80221c2ed37, type: 3}
  m_Name: F3973BCA-FD65-4086-AF5C-ABD0D9CE480C
  m_EditorClassIdentifier: 
  objectName: level02
  id: 3152323983
  guid: F3973BCA-FD65-4086-AF5C-ABD0D9CE480C
  WwiseSwitchGroupReference: {fileID: 11400000, guid: 0400e4bd98f89fc4dba28091f8112960,
    type: 2}
