%YAML 1.1
%TAG !u! tag:unity3d.com,2011:
--- !u!114 &11400000
MonoBehaviour:
  m_ObjectHideFlags: 0
  m_CorrespondingSourceObject: {fileID: 0}
  m_PrefabInstance: {fileID: 0}
  m_PrefabAsset: {fileID: 0}
  m_GameObject: {fileID: 0}
  m_Enabled: 1
  m_EditorHideFlags: 0
  m_Script: {fileID: 11500000, guid: 8747b90e61856d8419cea04917b914fd, type: 3}
  m_Name: 84087A07-0CA0-48BD-8B2A-81CDFFEC957B
  m_EditorClassIdentifier: 
  objectName: level01
  id: 3152323980
  guid: 84087A07-0CA0-48BD-8B2A-81CDFFEC957B
  WwiseStateGroupReference: {fileID: 11400000, guid: 539f36f01b824744a8c27c3b5fc42715,
    type: 2}
