%YAML 1.1
%TAG !u! tag:unity3d.com,2011:
--- !u!114 &11400000
MonoBehaviour:
  m_ObjectHideFlags: 0
  m_CorrespondingSourceObject: {fileID: 0}
  m_PrefabInstance: {fileID: 0}
  m_PrefabAsset: {fileID: 0}
  m_GameObject: {fileID: 0}
  m_Enabled: 1
  m_EditorHideFlags: 0
  m_Script: {fileID: 11500000, guid: 8747b90e61856d8419cea04917b914fd, type: 3}
  m_Name: B2F273F7-D7B4-43BE-89BB-BC528194054E
  m_EditorClassIdentifier: 
  objectName: on
  id: 1651971902
  guid: B2F273F7-D7B4-43BE-89BB-BC528194054E
  WwiseStateGroupReference: {fileID: 11400000, guid: 06987a87d2fb9944cac89e98c9c38c7a,
    type: 2}
